1.000000000000000056e-01,1.000000555555422110e+00,1.000008888855025369e+00,1.000042222053438623e+00,1.000097777384127529e+00,1.000175554847091641e+00,1.000275554442331405e+00,1.000397776169846820e+00,1.000542220029637441e+00,1.000708886021703714e+00,1.000897774146045416e+00,1.001108884402662769e+00,1.004442204243988002e+00,1.017775483609288933e+00,1.111108439166395456e+00
1.047615752789664845e-01,1.000000669168444434e+00,1.000010706649010039e+00,1.000050856571273128e+00,1.000117773108377683e+00,1.000211456260324372e+00,1.000331906027112971e+00,1.000479122408743482e+00,1.000653105405215682e+00,1.000853855016530014e+00,1.001081371242686258e+00,1.001335654083684412e+00,1.005350646309969731e+00,1.021410615215111672e+00,1.133830397551104818e+00
1.097498765493056250e-01,1.000000806015708177e+00,1.000012896184530709e+00,1.000061256859820391e+00,1.000141857985303639e+00,1.000254699560980232e+00,1.000399781586849723e+00,1.000577104062912559e+00,1.000786666989168960e+00,1.001028470365618261e+00,1.001302514192260906e+00,1.001608798469096895e+00,1.006444865998085580e+00,1.025789136114040101e+00,1.161199026925721745e+00
1.149756995397735598e-01,1.000000970848708981e+00,1.000015533482369490e+00,1.000073784017011302e+00,1.000170868241414102e+00,1.000306786155578331e+00,1.000481537759503547e+00,1.000695123053189972e+00,1.000947542036637605e+00,1.001238794709846225e+00,1.001568881072816275e+00,1.001937801125547312e+00,1.007762854589722812e+00,1.031063068446424147e+00,1.194164565443335713e+00
1.204503540258782118e-01,1.000001169390606570e+00,1.000018710109033204e+00,1.000088872982739741e+00,1.000205811105584264e+00,1.000369524477566330e+00,1.000580013098686383e+00,1.000837276968943979e+00,1.001141316088339561e+00,1.001492130456872687e+00,1.001889720074543799e+00,1.002334084941352454e+00,1.009350372312016519e+00,1.037415521794672557e+00,1.233871568173265709e+00
1.261856883066020396e-01,1.000001408534981095e+00,1.000022536355613001e+00,1.000107047638141511e+00,1.000247899775688731e+00,1.000445092768254662e+00,1.000698626615839748e+00,1.001008501318443544e+00,1.001374716876066273e+00,1.001797273288707935e+00,1.002276170556368529e+00,1.002811408679047833e+00,1.011262536931880396e+00,1.045067049943211090e+00,1.281698641022524843e+00
1.321941148466029003e-01,1.000001696585159916e+00,1.000027145066502143e+00,1.000128938991871497e+00,1.000298595534153456e+00,1.000536114693348244e+00,1.000841496469455860e+00,1.001214740862476082e+00,1.001655847872409355e+00,1.002164817499255456e+00,1.002741649743014163e+00,1.003386344603685920e+00,1.013565737140605716e+00,1.054283307288285343e+00,1.339306298322042954e+00
1.384886371393873050e-01,1.000002043542528751e+00,1.000032696250915842e+00,1.000155307084463763e+00,1.000359658473710223e+00,1.000645750418655222e+00,1.001013582919298761e+00,1.001463155975641062e+00,1.001994469587681680e+00,1.002607523755421282e+00,1.003302318478859201e+00,1.004078853757995660e+00,1.016339937112783254e+00,1.065384270531933408e+00,1.408694604465985156e+00
1.450828778495939775e-01,1.000002461453767477e+00,1.000039382637122776e+00,1.000187067370543526e+00,1.000433208592911294e+00,1.000777806304226525e+00,1.001220860504488552e+00,1.001762371193698042e+00,1.002402338371854329e+00,1.003140762038958078e+00,1.003977642195008846e+00,1.004912978840007076e+00,1.019681452182080506e+00,1.078755345550374445e+00,1.492272599128432464e+00
1.519911082952933867e-01,1.000002964829138197e+00,1.000047436362105691e+00,1.000225322493975444e+00,1.000521799380424737e+00,1.000936867021454013e+00,1.001470525417063051e+00,1.002122774567251628e+00,1.002893614472020190e+00,1.003783045131368512e+00,1.004791066545296596e+00,1.005917678713804442e+00,1.023706291900770671e+00,1.094860744648635809e+00,1.592941913883691107e+00
1.592282793341092129e-01,1.000003571146265591e+00,1.000057137028545373e+00,1.000271400557664503e+00,1.000628506439529941e+00,1.001128454674141466e+00,1.001771245261499299e+00,1.002556878201603219e+00,1.003485353494453225e+00,1.004556671140049318e+00,1.005770831138391719e+00,1.007127833489480206e+00,1.028554186401404058e+00,1.114259598049099242e+00,1.714197479582966421e+00
1.668100537200058742e-01,1.000004301456974165e+00,1.000068821408525155e+00,1.000326901214730002e+00,1.000757034225070896e+00,1.001359220439548281e+00,1.002133459858161935e+00,1.003079752480912079e+00,1.004198098307798714e+00,1.005488497338821618e+00,1.006950949573981013e+00,1.008585455013276677e+00,1.034393435633735869e+00,1.137625358115572638e+00,1.860248815488428686e+00
1.747528400007683780e-01,1.000005181118200914e+00,1.000082895130209648e+00,1.000393751178244583e+00,1.000911844591636068e+00,1.001637175370384325e+00,1.002569743514489353e+00,1.003709549023950709e+00,1.005056591898768836e+00,1.006610872138943735e+00,1.008372389744474962e+00,1.010341144715363182e+00,1.041426749518858497e+00,1.165769168732840200e+00,2.036166103230712121e+00
1.830738280295368392e-01,1.000006240672381530e+00,1.000099846752396049e+00,1.000474271072453902e+00,1.001098311605884028e+00,1.001971968352685982e+00,1.003095241312859986e+00,1.004468130486406041e+00,1.006090635873324146e+00,1.007962757473614079e+00,1.010084495287276063e+00,1.012455849314310097e+00,1.049898281320110760e+00,1.199668009343312747e+00,2.248056105505726876e+00
1.917910261672488847e-01,1.000007516907865490e+00,1.000120264714314144e+00,1.000571255940108983e+00,1.001322907983100530e+00,1.002375220843288561e+00,1.003728194520673522e+00,1.005381829015254969e+00,1.007336124327032900e+00,1.009591080456007539e+00,1.012146697402178885e+00,1.015002975165546717e+00,1.060102097745039718e+00,1.240498588063011276e+00,2.503274020288812629e+00
2.009233002565046777e-01,1.000009054136170805e+00,1.000144857747295557e+00,1.000688072191795452e+00,1.001593429599294538e+00,1.002860929969793924e+00,1.004490573303292722e+00,1.006482359599791376e+00,1.008836288859289665e+00,1.011552361081788032e+00,1.014630576267285811e+00,1.018070934415783446e+00,1.072392378865747009e+00,1.289678156665601039e+00,2.810678601264578358e+00
2.104904144512020903e-01,1.000010905730416955e+00,1.000174479454288168e+00,1.000828774349772576e+00,1.001919265842246665e+00,1.003445953931710211e+00,1.005408838618163436e+00,1.007807919901606342e+00,1.010643197782038705e+00,1.013914672259460747e+00,1.017622343333872470e+00,1.021766211005273872e+00,1.087195700553715394e+00,1.348913658747481481e+00,3.180939366103844090e+00
2.205130739903045645e-01,1.000013135978340850e+00,1.000210157906666897e+00,1.000998245619971749e+00,1.002311725142146281e+00,1.004150596473190715e+00,1.006514859613104829e+00,1.009404514561888622e+00,1.012819561319542760e+00,1.016759999886066135e+00,1.021225830261459633e+00,1.026217052445723033e+00,1.105025823776195626e+00,1.420260909098086222e+00,3.626906506351320392e+00
2.310129700083159709e-01,1.000015822314199943e+00,1.000253131280196772e+00,1.001202367144184313e+00,1.002784426917496807e+00,1.004999310600134033e+00,1.007847018192096433e+00,1.011327549693383565e+00,1.015440905103995650e+00,1.020187084423932689e+00,1.025566087653194902e+00,1.031577914791782069e+00,1.126501501190524834e+00,1.506195846785496339e+00,4.164056265950296876e+00
2.420128264794382256e-01,1.000019058007040273e+00,1.000304890759102561e+00,1.001448221767351709e+00,1.003353773447767106e+00,1.006021545800348305e+00,1.009451538825095973e+00,1.013643752522009667e+00,1.018598186891089163e+00,1.024314841932335129e+00,1.030793717645747121e+00,1.038034814031325137e+00,1.152367914856242237e+00,1.609700318155910415e+00,4.811027141253588546e+00
2.535364493970111988e-01,1.000022955398607305e+00,1.000367232185776167e+00,1.001744339334451839e+00,1.004039517915577440e+00,1.007252767929153636e+00,1.011384089375180206e+00,1.016433482253656928e+00,1.022400946564584245e+00,1.029286482307961714e+00,1.037090089483789557e+00,1.045811768092067551e+00,1.183522482959617150e+00,1.734365342429815104e+00,5.590265358721200784e+00
2.656087782946686682e-01,1.000027649803261642e+00,1.000442318231847372e+00,1.002100991946189845e+00,1.004865448136760930e+00,1.008735686803559961e+00,1.013711707946587826e+00,1.019793511565843636e+00,1.026981097661328057e+00,1.035274466233040647e+00,1.044673617280981626e+00,1.055178550805151216e+00,1.221045922239404780e+00,1.884515407976419699e+00,6.528801808135524354e+00
2.782559402207124277e-01,1.000033304205208751e+00,1.000532753223731586e+00,1.002530549297822704e+00,1.005860209421308049e+00,1.010521733594187399e+00,1.016515121816460976e+00,1.023840374088128558e+00,1.032497490409190366e+00,1.042486470779646179e+00,1.053807315199496220e+00,1.066460023668740265e+00,1.266239631077857419e+00,2.065358060714326704e+00,7.659187068169612367e+00
2.915053062825177510e-01,1.000040114915986544e+00,1.000641673183649383e+00,1.003047906254300292e+00,1.007058294705384771e+00,1.012672838536903264e+00,1.019891537748855548e+00,1.028714392341241624e+00,1.039141402314061713e+00,1.051172567667315594e+00,1.064807888401003044e+00,1.080047364515124730e+00,1.320670671580201461e+00,2.283163899840508382e+00,9.020616497662656386e+00
3.053855508833415722e-01,1.000048318388443658e+00,1.000772854158760827e+00,1.003670997240029061e+00,1.008501235708809451e+00,1.015263569565101998e+00,1.023957998808906700e+00,1.034584523440223558e+00,1.047143143459052794e+00,1.061633858865393965e+00,1.078056669659247291e+00,1.096411575840612773e+00,1.386225883967437511e+00,2.545483116474736462e+00,1.066028374402582912e+01
3.199267137797383587e-01,1.000058199423475847e+00,1.000930842521884134e+00,1.004421414915516841e+00,1.010239035571571575e+00,1.018383704490048114e+00,1.028855421670946457e+00,1.041654187114266605e+00,1.056780000820008780e+00,1.074232862788172760e+00,1.094012773018758766e+00,1.116119731511766577e+00,1.465176970875046392e+00,2.861405928328165871e+00,1.263500863050000156e+01
3.351602650938842465e-01,1.000070101054044036e+00,1.001121111655196128e+00,1.005325154059804271e+00,1.012331891400817918e+00,1.022141323678237068e+00,1.034753450892061943e+00,1.050168273042292100e+00,1.068385790128927537e+00,1.089406002151968700e+00,1.113228909111415366e+00,1.139854511007267313e+00,1.560258751468089233e+00,3.241875713311377361e+00,1.501319444621439203e+01
3.511191734215131643e-01,1.000084436449000247e+00,1.001350250293667754e+00,1.006413505672338005e+00,1.014852264636788348e+00,1.026666527187018785e+00,1.041856293323029536e+00,1.060421563044820159e+00,1.082362336352391319e+00,1.107678613245742127e+00,1.136370393724873473e+00,1.168437677789784690e+00,1.674763215656805748e+00,3.700065367124889537e+00,1.787718042740147695e+01
3.678379771828634293e-01,1.000101703249109075e+00,1.001626188830905928e+00,1.007724131158093117e+00,1.017887368370072210e+00,1.032115900466842540e+00,1.050409727448404551e+00,1.072768849314758022e+00,1.099193266065903174e+00,1.129682977701840008e+00,1.164237984222568079e+00,1.202858285628087831e+00,1.812652518346822061e+00,4.251829449221756541e+00,2.132606796534630433e+01
3.853528593710529582e-01,1.000122500831677641e+00,1.001958471101983994e+00,1.009302352183209628e+00,1.021542153985252499e+00,1.038677876508112385e+00,1.060709519751789509e+00,1.087637083716283648e+00,1.119460568401595024e+00,1.156179973807723194e+00,1.197795299934668822e+00,1.244306546782431466e+00,1.978694654904999295e+00,4.916247087395269055e+00,2.547911411482716204e+01
4.037017258596554692e-01,1.000147551101270738e+00,1.002358580583228242e+00,1.011202698511057818e+00,1.025942895057440962e+00,1.046579170222376787e+00,1.073111524005865958e+00,1.105539956407908253e+00,1.143864467428503895e+00,1.188085057067652439e+00,1.238201725325354330e+00,1.294214472201609123e+00,2.178626264984581784e+00,5.716273436116472872e+00,3.047980363403970827e+01
4.229242874389498863e-01,1.000177723525548457e+00,1.002840331616239089e+00,1.013490763979002063e+00,1.031241484583606871e+00,1.056092493430053514e+00,1.088043790518342435e+00,1.127095375848473191e+00,1.173247249420445781e+00,1.226499411234260428e+00,1.286851861289917132e+00,1.354304599587415447e+00,2.419347835863707719e+00,6.679520780968879023e+00,3.650073139670507771e+01
4.430621457583880929e-01,1.000214065281370246e+00,1.003420338200218254e+00,1.016245429875609396e+00,1.037620582667928337e+00,1.067545796577175077e+00,1.106021071603349171e+00,1.153046407746450619e+00,1.208621805006479866e+00,1.272747263383436689e+00,1.345422782877321088e+00,1.426648363488133064e+00,2.709157531027268639e+00,7.839194201183810939e+00,4.374945089227960437e+01
4.641588833612779741e-01,1.000257837551880025e+00,1.004118575126609958e+00,1.019561525425530801e+00,1.045299775923731689e+00,1.081333326621213287e+00,1.127662177517975151e+00,1.184286328614017725e+00,1.251205779909340343e+00,1.328420531403943672e+00,1.415930583097827267e+00,1.513735934990991350e+00,3.058030964883056146e+00,9.235211084451314889e+00,5.247547192142912564e+01
4.862601580065354923e-01,1.000310559226156748e+00,1.004959048768155228e+00,1.023553006936148924e+00,1.054542937216138343e+00,1.097928839608123708e+00,1.153710714112104796e+00,1.221888560728081607e+00,1.302462379456054142e+00,1.395432170296022401e+00,1.500797933247986604e+00,1.618559668311946531e+00,3.477955485111315248e+00,1.091553875230878745e+01,6.297862162269109376e+01
5.094138014816380622e-01,1.000374059506146773e+00,1.005970597679371803e+00,1.028356750372271478e+00,1.065667004860437750e+00,1.117901361143870620e+00,1.185059819222569644e+00,1.267142379096535487e+00,1.364149040765767706e+00,1.476079804230266523e+00,1.602934669490031716e+00,1.744713636545063506e+00,3.983328905835038736e+00,1.293778998299493743e+01,7.561901752311425184e+01
5.336699231206309957e-01,1.000450541229167545e+00,1.007187846288536859e+00,1.034137066526013671e+00,1.079052433588475024e+00,1.141933947475920919e+00,1.222781608188351354e+00,1.321595415725766109e+00,1.438375370088165628e+00,1.573121471275549466e+00,1.725833719287918067e+00,1.896512114125271209e+00,4.591434137872950849e+00,1.537112223286367119e+01,9.082893889779869312e+01
5.590810182512223614e-01,1.000542657078119069e+00,1.008652338289649952e+00,1.041091063135773043e+00,1.095155604545978489e+00,1.170845962520266292e+00,1.268162137058636008e+00,1.387104128161087857e+00,1.527671935827621841e+00,1.689865560058238403e+00,1.873685000852936655e+00,2.079130258211717042e+00,5.323002742824042066e+00,1.829849268127334483e+01,1.091269222504184455e+02
5.857020818056667411e-01,1.000653601287091243e+00,1.010413879735833964e+00,1.049454993530805069e+00,1.114523516522423208e+00,1.205619448710688824e+00,1.322742790095601695e+00,1.465893540677161822e+00,1.635071700455369204e+00,1.830277269430224285e+00,2.051510247601726178e+00,2.298770634969875548e+00,6.202882014466970517e+00,2.181932753245535750e+01,1.311344461583740326e+02
6.135907273413173657e-01,1.000787219970791453e+00,1.012532125050187748e+00,1.059511745367772484e+00,1.137811112563746896e+00,1.247430226638110984e+00,1.388369087590865192e+00,1.560627695422008854e+00,1.764206050131542192e+00,1.999104151719465428e+00,2.265322000185778339e+00,2.562859595530481371e+00,7.260821627288946978e+00,2.605266975432280674e+01,1.575956066435598473e+02
6.428073117284321958e-01,1.000948143827808723e+00,1.015078441813750620e+00,1.071599633757518433e+00,1.165801620330464861e+00,1.297684401532589904e+00,1.467247977363893563e+00,1.674492347824375615e+00,1.919417512914036728e+00,2.202023472632875567e+00,2.522310226980893688e+00,2.880277775958089759e+00,8.532396970334877651e+00,3.114087374784202211e+01,1.894002111903920422e+02
6.734150657750823665e-01,1.001141947708294566e+00,1.018138091656276334e+00,1.086122667448203627e+00,1.199430293768082301e+00,1.358060970615912577e+00,1.562014697991694234e+00,1.811291475895427494e+00,2.105891304327112135e+00,2.445814183286748378e+00,2.831060112774336446e+00,3.261629092789875450e+00,1.006008667198259943e+01,3.725391698875350244e+01,2.276107292061497844e+02
7.054802310718644165e-01,1.001375342416849668e+00,1.021812763957416381e+00,1.103562450119683236e+00,1.239811927056794882e+00,1.430561194768751099e+00,1.675810253255551663e+00,1.975559102517196797e+00,2.329807742553686722e+00,2.738556173365021440e+00,3.201804394951200283e+00,3.719552407312224140e+00,1.189452102353891583e+01,4.459439548844567724e+01,2.734935167427929628e+02
7.390722033525779500e-01,1.001656405164546015e+00,1.026223495048005585e+00,1.124491854581843420e+00,1.288272453804906403e+00,1.517565292717194758e+00,1.812370371318708706e+00,2.172687689609447137e+00,2.598517247589411827e+00,3.089859045258601000e+00,3.646713082617015544e+00,4.269079359664655904e+00,1.409591531304844381e+01,5.340325912658359897e+01,3.285546658213296496e+02
7.742636826811272188e-01,1.001994856315814753e+00,1.031513996325358784e+00,1.149590556363535576e+00,1.346384823093830452e+00,1.621896796516243189e+00,1.976126476630774009e+00,2.409073863437422691e+00,2.920738956936189457e+00,3.511121757127073639e+00,4.180222264010077460e+00,4.928040477585197365e+00,1.673569648140288635e+01,6.396632049667365294e+01,3.945806886035690582e+02
8.111308307896872849e-01,1.002402391524009673e+00,1.037854397612840929e+00,1.179662421968165287e+00,1.416009129227039587e+00,1.746894519389463385e+00,2.172318592455436903e+00,2.692281348424959919e+00,3.306782787298033099e+00,4.015822909074654667e+00,4.819401713754827732e+00,5.717519201338549628e+00,1.989832163687099964e+01,7.662153137900078548e+01,4.736839995739093752e+02
8.497534359086444944e-01,1.002893080042242202e+00,1.045445383814214591e+00,1.215654598902103700e+00,1.499336624048585698e+00,1.896491459253660583e+00,2.407119104517328356e+00,3.031219559839588573e+00,3.768792825220441234e+00,4.619838900659888559e+00,5.584357786157926995e+00,6.662349481714557875e+00,2.368327099050348039e+01,9.176695702565916690e+01,5.683527592717489370e+02
8.902150854450388007e-01,1.003483841960937983e+00,1.054522659112238303e+00,1.258677927717439582e+00,1.598936708726108380e+00,2.075299002138244919e+00,2.687764807953848312e+00,3.436334126172919667e+00,4.321006956795458542e+00,5.341783299821464936e+00,6.498663155250937962e+00,7.791646523083880282e+00,2.820717338360400461e+01,1.098692808256844984e+02,6.815040329202480507e+02
9.326033468832198858e-01,1.004195019383577803e+00,1.065361608406674154e+00,1.310027964499059561e+00,1.717805224653035312e+00,2.288693388868601186e+00,3.022692457145757405e+00,3.919802429484503303e+00,4.980023305884841101e+00,6.203355086346768132e+00,7.589797770870284843e+00,9.139351359455393009e+00,3.360598696869394075e+01,1.314725294056481175e+02,8.165383264643272696e+02
9.770099572992253512e-01,1.005051059120911860e+00,1.078281934540325171e+00,1.371205436217978413e+00,1.859411272347400779e+00,2.542899442928592268e+00,3.421669947961551550e+00,4.495722787446280400e+00,5.765057961382778373e+00,7.229675469771045471e+00,8.889575312611082580e+00,1.074475748990288793e+01,4.003710765766822277e+01,1.572065083287295408e+02,9.773923130261589449e+02
1.023531021899026339e+00,1.006081327358281152e+00,1.093651926466160162e+00,1.443934322897676426e+00,2.027738316950203679e+00,2.845063908623742588e+00,3.895911097918291155e+00,5.180279884833850268e+00,6.698170269370421259e+00,8.449582251528003241e+00,1.043451583130659799e+01,1.265297100870619929e+01,4.768121065185783181e+01,1.877941692244643548e+02,1.168584879232710136e+03
1.072267222010323762e+00,1.007321079898199967e+00,1.111891853981940459e+00,1.530174950316902649e+00,2.227313444208506521e+00,3.203307335656751409e+00,4.458156624661637757e+00,5.991861311223165565e+00,7.804421395341334389e+00,9.895836877016146005e+00,1.226610775624759775e+01,1.491523403303569140e+01,5.674354366653190596e+01,2.240567822005168068e+02,1.395249451938410857e+03
1.123324032978027631e+00,1.008812614922797390e+00,1.133475789684189605e+00,1.632128488729758908e+00,2.463216320472374488e+00,3.626739284912035455e+00,5.122697382048743364e+00,6.951090611882495551e+00,9.111918974413296013e+00,1.160518246964114297e+01,1.443088109756603465e+01,1.758901485818797639e+01,6.745428476274489071e+01,2.669153643809725622e+02,1.663142921708566291e+03
1.176811952434998476e+00,1.010606638608904317e+00,1.158930937997018074e+00,1.752228135549472876e+00,2.741056798136897843e+00,4.125416925759291864e+00,5.905308518416656938e+00,8.080731576108991732e+00,1.065168609883629713e+01,1.361817208659857315e+01,1.698018953939581621e+01,2.073773845722802989e+01,8.006745821247352524e+01,3.173863372334554924e+02,1.978618490380329149e+03
1.232846739442066575e+00,1.012763877107020427e+00,1.188833329217676038e+00,1.893111137660298482e+00,3.066907485064669370e+00,4.710222371430789146e+00,6.823055796758656477e+00,9.405407761048271809e+00,1.245727826429963869e+01,1.597866730651275091e+01,1.996957488768761380e+01,2.443000100782422024e+01,9.485778185208647528e+01,3.765689052291355097e+02,2.348546768868478921e+03
1.291549665014884107e+00,1.015356970953688487e+00,1.223798560688755366e+00,2.057564919629022882e+00,3.447175517862802074e+00,5.392630355390092944e+00,7.893929432210894603e+00,1.095107274832520972e+01,1.456406030373303473e+01,1.873289209843437320e+01,2.345756813242923045e+01,2.873808840571758338e+01,1.121147242997443243e+02,4.456212678758514016e+02,2.780167072908600403e+03
1.353047774579807516e+00,1.018472689292653000e+00,1.264466214039550174e+00,2.248440313027138870e+00,3.888397144673120032e+00,6.184336708977495434e+00,9.136259005940260636e+00,1.274416403556141830e+01,1.700805179784097021e+01,2.192792229277891636e+01,2.750377552037524964e+01,3.373561148062997717e+01,1.321330213793888788e+02,5.257226609744244570e+02,3.280850138139673163e+03
1.417474162926805503e+00,1.022214500391903425e+00,1.311476755290097884e+00,2.468525774882875723e+00,4.396940807537504270e+00,7.096721853253985302e+00,1.056786891203231882e+01,1.481038198387250304e+01,1.982426106877453975e+01,2.560950616673842717e+01,3.216611727776416529e+01,3.949409440185175413e+01,1.551989963611295025e+02,6.180186041982404959e+02,3.857755859058016995e+03
1.484968262254465099e+00,1.026705530498167374e+00,1.365440264777513235e+00,2.720379201894896237e+00,4.978610763757201241e+00,8.140134950364426913e+00,1.220495176171657903e+01,1.717306119781364870e+01,2.304446325865564305e+01,2.981915794424255850e+01,3.749714525457439862e+01,4.607842518965115630e+01,1.815723189013894512e+02,7.235478937483426307e+02,4.517376917677014717e+03
1.555676143930472266e+00,1.032091933147926133e+00,1.426897371793851343e+00,3.006119126377551964e+00,5.638155384017053073e+00,9.323006144712355336e+00,1.406067140846345787e+01,1.985115117527035977e+01,2.669444544513306283e+01,3.459055421805157238e+01,4.353947749402587419e+01,5.354121527305598249e+01,2.114633907314260739e+02,8.431520925649064111e+02,5.264973005399268914e+03
1.629750834620644406e+00,1.038546673027708422e+00,1.496274348053126868e+00,3.327185048154800651e+00,6.378702881657589252e+00,1.065082784856149445e+01,1.614355994886651757e+01,2.285689918257265063e+01,3.079084554967990428e+01,3.994539905018827142e+01,5.032055968409775915e+01,6.191632745140834970e+01,2.450073974615757493e+02,9.773716775022452339e+02,6.103921637786930660e+03
1.707352647470691265e+00,1.046273698868420254e+00,1.573836364556422396e+00,3.684087027308430518e+00,7.201171465228445534e+00,1.212508967831646522e+01,1.845584166657248915e+01,2.619342742999651819e+01,3.533784696858855767e+01,4.588910028234860761e+01,5.784718737127664667e+01,7.121210823537269619e+01,2.822371745105735386e+02,1.126337439611377022e+03,7.035039295317002143e+03
1.788649529057435128e+00,1.055512434249351150e+00,1.659645128221615140e+00,4.076175904110670878e+00,8.103727197259098958e+00,1.374229900766689560e+01,2.099189133533406348e+01,2.985250418026060260e+01,4.032413754244651471e+01,5.240679142189180340e+01,6.610046581859646153e+01,8.140516073256047491e+01,3.230582383214660922e+02,1.289670548677088618e+03,8.055956721166446187e+03
1.873817422860384996e+00,1.066542448265804577e+00,1.753528905462747645e+00,4.501474734250519028e+00,9.081384448896805850e+00,1.549325804940160722e+01,2.373709553576492226e+01,3.381289690798674741e+01,4.572066216606710043e+01,5.946039131000595290e+01,7.503208433980331904e+01,9.243574125545920595e+01,3.672303241342364117e+02,1.466408655649345064e+03,9.160656976255106201e+03
1.963040650040271506e+00,1.079688073913560364e+00,1.855073522769302707e+00,4.956615318192270969e+00,1.012585164389721726e+01,1.736278249988414402e+01,2.666740788615304680e+01,3.803972780270392917e+01,5.147974224953679112e+01,6.698745122665164331e+01,8.456285473404847153e+01,1.042059527717272402e+02,4.143601323140241561e+02,1.654976850483211365e+03,1.033929387766752188e+04
2.056512308348651619e+00,1.095322615195123417e+00,1.963641546206862376e+00,5.436917270253817769e+00,1.122571014366540965e+01,1.933002016644163845e+01,2.974984733858250863e+01,4.248519166008801307e+01,5.753605313095815887e+01,7.490243175119293539e+01,9.458432752079234263e+01,1.165817404397563877e+02,4.639093128444519607e+02,1.853219602463234196e+03,1.157839162979470893e+04
2.154434690031884259e+00,1.113871620779305127e+00,2.078423108382617013e+00,5.936629058795863223e+00,1.236697230948460913e+01,2.136945286044885250e+01,3.294407071168859602e+01,4.709082586320383257e+01,6.380971831499457636e+01,8.310074806706080608e+01,1.049639151194025430e+02,1.293992194720197801e+02,5.152198145133445450e+02,2.058502194678643718e+03,1.286147885583573589e+04
2.257019719633920118e+00,1.135814503891847016e+00,2.198516145574471281e+00,6.449322712304968341e+00,1.353400032352246285e+01,2.345254897922695747e+01,3.620496867941844954e+01,5.179125942409693550e+01,7.021142121326242602e+01,9.146545404691492820e+01,1.155533579250543994e+02,1.424751328476808965e+02,5.675557895207305137e+02,2.267878416212929551e+03,1.417013680305832168e+04
2.364489412645408350e+00,1.161683565798204087e+00,2.323027371446727329e+00,6.968402594040819409e+00,1.471069463169763836e+01,2.554990348441718595e+01,3.948602915219946397e+01,5.651907163504446174e+01,7.664903093295220060e+01,9.987590704592265922e+01,1.261996999739558731e+02,1.556204097170517855e+02,6.201579319764609863e+02,2.478308021014097449e+03,1.548535864427755587e+04
2.477076355991711498e+00,1.192059260350199157e+00,2.451179964208107798e+00,7.487662779639740585e+00,1.588180080535912886e+01,2.763359404136627262e+01,4.274304248766117809e+01,6.121014614424382927e+01,8.303490501111426170e+01,1.082173190882724043e+02,1.367573883757183353e+02,1.686551128734520262e+02,6.723033944166154470e+02,2.686896520589269130e+03,1.678904840379784218e+04
2.595024211399737268e+00,1.227560369441301980e+00,2.582411402304468862e+00,8.001815533757136834e+00,1.703415575284491723e+01,2.967943205956781227e+01,4.593764445392581308e+01,6.580879293591893031e+01,8.929287750554716752e+01,1.163898981628104963e+02,1.470998549077089592e+02,1.814227477402424995e+02,7.233631608855092736e+02,2.891124813466577052e+03,1.806545638153404798e+04
2.718588242732941307e+00,1.268827723594951218e+00,2.716446038426425069e+00,8.506919297752318698e+00,1.815770806329547327e+01,3.166881233505589677e+01,4.904023211303358210e+01,7.027196739722852215e+01,9.536401818764073823e+01,1.243163844842702161e+02,1.571290662871169559e+02,1.938020635961809433e+02,7.728493895287703026e+02,3.089038693259128195e+03,1.930236381937163242e+04
2.848035868435801810e+00,1.316500309571161820e+00,2.853331524800083674e+00,9.000656385715771535e+00,1.924619782057525086e+01,3.358995582937852475e+01,5.203193041212558256e+01,7.457212156881644205e+01,1.012105292994510819e+02,1.319471536040295234e+02,1.667819944825517382e+02,2.057150519350177831e+02,8.204475380265864715e+02,3.279377482392862021e+03,2.049188709295678564e+04
2.983647240283340274e+00,1.371183190223309145e+00,2.993434747288421516e+00,9.482440975548872331e+00,2.029745135598295391e+01,3.543846588859067026e+01,5.490548457337202137e+01,7.869850741032699659e+01,1.068175343994556243e+02,1.392625655407578620e+02,1.760336008342337664e+02,2.171306402798832380e+02,8.660312631059282467e+02,3.461633754410107940e+03,2.163085119353936898e+04
3.125715849688236680e+00,1.433407743166380310e+00,3.137399767798126238e+00,9.953367866325109503e+00,2.131331469720341687e+01,3.721724026043304434e+01,5.766514455601399192e+01,8.265702758394625960e+01,1.121928893442298545e+02,1.462727298368648121e+02,1.848965490618510046e+02,2.280643470191885456e+02,9.096611568718869876e+02,3.636048396282680187e+03,2.272075907215823099e+04
3.274549162877729902e+00,1.503586357408961405e+00,3.286075999432017003e+00,1.041603456752423718e+01,2.229929884767793880e+01,3.893586883989312497e+01,6.032574454416978682e+01,8.646892596050791724e+01,1.173654130889075589e+02,1.530152059293686762e+02,1.934183044818912833e+02,2.385747087464753520e+02,9.515705655556974989e+02,3.803553992792585632e+03,2.376743798345080722e+04
3.430469286314919319e+00,1.581965811720602799e+00,3.440428699945414781e+00,1.087428025284466315e+01,2.326403284101007429e+01,4.060968646444165131e+01,6.291124112313940486e+01,9.016869681710328166e+01,1.223820535463333812e+02,1.595513113108295897e+02,2.016764701105920210e+02,2.487575299456205471e+02,9.921426852355452866e+02,3.965683306395244472e+03,2.478046765451313695e+04
3.593813663804627634e+00,1.668585758941420583e+00,3.601445710265448685e+00,1.133288551556156065e+01,2.421861852438841467e+01,4.225864473674601385e+01,6.545296415263435108e+01,9.380157677205342281e+01,1.273044825950032504e+02,1.659616816214837911e+02,2.097731738514951303e+02,2.587389592850371969e+02,1.031882939814648580e+03,4.124458861933093431e+03,2.577249031676220693e+04
3.764935806792469197e+00,1.763250448698566730e+00,3.770054286346158356e+00,1.179726963693652486e+01,2.517596188792046519e+01,4.390613103929798910e+01,6.798777709106909128e+01,9.742090004323377173e+01,1.322054998957920020e+02,1.723415766487438532e+02,2.178291303020892826e+02,2.686681608558282051e+02,1.071389695914864888e+03,4.282275836151012300e+03,2.675847881780403623e+04
3.944206059437656009e+00,1.865522239508744962e+00,3.947059938620139263e+00,1.227321073506571736e+01,2.615012872914167730e+01,4.557781392084802263e+01,7.055626631018475337e+01,1.010854858971518695e+02,1.371654726817493781e+02,1.787962266639772508e+02,2.259777478438355161e+02,2.787100362213241738e+02,1.111325115865881799e+03,4.441785434444113889e+03,2.775500766449173170e+04
4.132012400115338657e+00,1.974743837789478595e+00,4.133115403842133162e+00,1.276660166805274876e+01,2.715574544173710692e+01,4.730054672489521295e+01,7.320100551752706508e+01,1.048571218196326527e+02,1.422688956312120183e+02,1.854363269522651194e+02,2.343594157827919560e+02,2.890381621227925280e+02,1.152386788543854209e+03,4.605781294228100705e+03,2.877954283401782595e+04
4.328761281083059131e+00,2.090092241562740316e+00,4.328722421545675658e+00,1.328324314147741525e+01,2.820744434136364731e+01,4.910132602120437184e+01,7.596488818099959417e+01,1.087981308207492930e+02,1.476010539404535393e+02,1.923736575401122195e+02,2.431159416197253904e+02,2.998279061792930520e+02,1.195279978172467054e+03,4.777088266145162379e+03,2.984974628195403420e+04
4.534878508128584507e+00,2.210661519887514803e+00,4.534262601734365461e+00,1.382866692912176987e+01,2.931934080810077603e+01,5.100628423867137684e+01,7.888949722083360427e+01,1.129689797545873944e+02,1.532447318399328253e+02,1.997167534768698545e+02,2.523850446653984534e+02,3.112496054055187074e+02,1.240690038144258779e+03,4.958451769099220655e+03,3.098278388578394515e+04
4.750810162102798273e+00,2.335565144816031502e+00,4.750047746615386757e+00,1.440797815381280778e+01,3.050452883247517732e+01,5.303969978260249007e+01,8.201349100419474780e+01,1.174259024972519541e+02,1.592769342617741302e+02,2.075665862977612335e+02,2.622948586052132782e+02,3.234617511841303212e+02,1.289254791903872501e+03,5.152426954782841676e+03,3.219463209493561953e+04
4.977023564332111683e+00,2.464043452749174801e+00,4.976376268873085706e+00,1.502570753336872755e+01,3.177459297419479967e+01,5.522303259135130560e+01,8.537102638483821693e+01,1.222185743546555585e+02,1.657656765008033517e+02,2.160123328232815823e+02,2.729585433220902360e+02,3.366043079972293413e+02,1.341537434446793668e+03,5.361269940245049838e+03,3.349939748083284940e+04
5.214008287999686964e+00,2.595559615334136705e+00,5.213582204229075145e+00,1.568567255980883068e+01,3.313915648577508932e+01,5.757403398212784396e+01,8.899030504886711412e+01,1.273879696859928714e+02,1.727670278935051442e+02,2.251274796714039326e+02,2.844693250196892791e+02,3.507925639383610132e+02,1.398001599496336667e+03,5.586837741728238143e+03,3.490869073735155689e+04
5.462277217684342823e+00,2.729869023014801055e+00,5.462066991844817920e+00,1.639085886716488361e+01,3.460551199269831812e+01,6.010602636844515700e+01,9.289240199440534695e+01,1.329646388705789377e+02,1.803227369969658866e+02,2.349666963735662080e+02,2.968965170003799585e+02,3.661121988774070246e+02,1.458991386409413963e+03,5.830508136537439896e+03,3.643112538743362529e+04
5.722367659350219959e+00,2.867051779781668586e+00,5.722310487697766845e+00,1.714334531936215811e+01,3.617840337213615243e+01,6.282748464601973382e+01,9.709058914101291293e+01,1.389677168571156756e+02,1.884588677943280288e+02,2.455640419526500580e+02,3.102832393320815640e+02,3.826164599326227744e+02,1.524719943099062220e+03,6.093133875764819095e+03,3.807203140442512085e+04
5.994842503189412142e+00,3.007504658229638750e+00,5.994864313155567004e+00,1.794430293285928357e+01,3.786003396569879698e+01,6.574205741167413919e+01,1.015903732707852782e+02,1.454049815430322212e+02,1.971858822284149824e+02,2.569330753269335901e+02,3.246465608385879591e+02,4.003263387633780894e+02,1.595270200733749334e+03,6.375045648615235223e+03,3.983347378378563008e+04
6.280291441834256361e+00,3.151895648880354450e+00,6.280335243566723236e+00,1.879409362231220015e+01,3.965035758688799206e+01,6.884912713729410427e+01,1.063904022735305261e+02,1.522741829955972719e+02,2.065004693034943841e+02,2.690692611972217492e+02,3.399805586767794239e+02,4.192343617421673798e+02,1.670610199616715136e+03,6.676113551114905931e+03,4.171463701160224446e+04
6.579332246575682497e+00,3.301089799908711875e+00,6.579367471018236380e+00,1.969247815545633529e+01,4.154766262951983435e+01,7.214492089320872026e+01,1.114842529465230143e+02,1.595656587894627307e+02,2.163891384220277700e+02,2.819546918442182459e+02,3.562623190560342437e+02,4.393120200574754790e+02,1.750623088501285338e+03,6.995867362276523636e+03,4.371257727870320377e+04
6.892612104349698399e+00,3.456058704362841905e+00,6.892630340708266523e+00,2.063891688608996589e+01,4.354939446172613771e+01,7.562406306761677399e+01,1.168629227037618676e+02,1.672659733701614471e+02,2.268332150668154554e+02,2.955646477937239638e+02,3.734602715508869437e+02,4.605200863383044521e+02,1.835148740876474676e+03,7.333663359029154890e+03,4.582326568609791866e+04
7.220809018385467404e+00,3.617787637563680825e+00,7.220814070100129101e+00,2.163291980024592576e+01,4.565309601715558330e+01,7.928134272082908751e+01,1.225176599112664775e+02,1.753620475884677035e+02,2.378145057524328649e+02,3.098750344031618624e+02,3.915436335406546959e+02,4.828203031649113655e+02,1.924030876179490861e+03,7.688873168237808386e+03,4.804276921264603880e+04
7.564633275546290392e+00,3.787194084186115806e+00,7.564632095164160575e+00,2.267438413907634143e+01,4.785730421226330833e+01,8.311339231472506128e+01,1.284426484464615896e+02,1.838450726074729005e+02,2.493206647977590649e+02,3.248694250173199976e+02,4.104913532661556701e+02,5.061864495442661109e+02,2.017161653935484310e+03,8.061062471500355969e+03,5.036836819445446599e+04
7.924828983539177862e+00,3.965069276368581530e+00,7.924826638555109604e+00,2.376385608730122101e+01,5.016223850187807187e+01,8.711997388228567729e+01,1.346370622285240017e+02,1.927135035405930523e+02,2.613492978184929143e+02,3.405444450622234740e+02,4.302989452717847598e+02,5.306127984471767149e+02,2.114515743321788250e+03,8.450127522820232116e+03,5.279940997930934827e+04
8.302175681319747369e+00,4.152050395167196761e+00,8.302174246232750576e+00,2.490266965049496051e+01,5.257016199093196462e+01,9.130465126754378957e+01,1.411061374803304318e+02,2.019746206292918203e+02,2.739101007144280402e+02,3.569125777357390916e+02,4.509820516932250598e+02,5.561185225868855468e+02,2.216168063013106803e+03,8.856366224717990917e+03,5.533775335665217426e+04
8.697490026177835176e+00,4.348625499040809750e+00,8.697489600554179745e+00,2.609294600660765795e+01,5.508537335003011748e+01,9.567477163082158143e+01,1.478611408489819894e+02,2.116444810045113911e+02,2.870247920974098292e+02,3.740020741276772469e+02,4.725763270953136157e+02,5.827475510003190493e+02,2.322293191605666834e+03,9.280475754027058429e+03,5.798775369097679504e+04
9.111627561154895361e+00,4.555166831211986178e+00,9.111627610895503437e+00,2.733747072962957603e+01,5.771387592751970885e+01,1.002408432045658628e+02,1.549183725607680913e+02,2.217464639961263231e+02,3.007251175106407004e+02,3.918543331043110243e+02,4.951341107771375505e+02,6.105644505291199948e+02,2.433148762402527154e+03,9.723486009896156247e+03,6.075584674235156854e+04
9.545484566618341660e+00,4.771982374020237394e+00,9.545484684796750940e+00,2.863949392790281223e+01,6.046284266641289662e+01,1.050155309003270503e+02,1.622975586296452093e+02,2.323089258543674305e+02,3.150496325744936144e+02,4.105196787900239315e+02,5.187190645009583250e+02,6.396477897072967380e+02,2.549048714017902512e+03,1.018665241126032561e+04,6.364987829195729864e+04
1.000000000000000000e+01,4.999372104140526574e+00,1.000000005445680351e+01,3.000251185572190948e+01,6.334003152449709262e+01,1.100125590607823511e+02,1.700200944645776531e+02,2.433626377358830268e+02,3.300401888746984582e+02,4.300527478810240609e+02,5.434003147548596644e+02,6.700828894962053255e+02,2.670334069622716015e+03,1.067133879012875695e+04,6.667837183367105899e+04
